<?xml version="1.0" encoding="UTF-8" standalone="no"?>
<!-- Created with Inkscape (http://www.inkscape.org/) -->

<svg
   xmlns:dc="http://purl.org/dc/elements/1.1/"
   xmlns:cc="http://creativecommons.org/ns#"
   xmlns:rdf="http://www.w3.org/1999/02/22-rdf-syntax-ns#"
   xmlns:svg="http://www.w3.org/2000/svg"
   xmlns="http://www.w3.org/2000/svg"
   xmlns:sodipodi="http://sodipodi.sourceforge.net/DTD/sodipodi-0.dtd"
   xmlns:inkscape="http://www.inkscape.org/namespaces/inkscape"
   width="444.28571"
   height="222.14285"
   id="svg2"
   version="1.1"
   inkscape:version="0.48.4 r9939"
   sodipodi:docname="logo.svg"
   inkscape:export-filename="/home/m5/Play/projects/Scinage/static/img/logo.png"
   inkscape:export-xdpi="200"
   inkscape:export-ydpi="200">
  <defs
     id="defs4" />
  <sodipodi:namedview
     id="base"
     pagecolor="#ffffff"
     bordercolor="#666666"
     borderopacity="1.0"
     inkscape:pageopacity="0.0"
     inkscape:pageshadow="2"
     inkscape:zoom="1.4"
     inkscape:cx="114.99994"
     inkscape:cy="-90.193632"
     inkscape:document-units="px"
     inkscape:current-layer="layer1"
     showgrid="false"
     fit-margin-top="0"
     fit-margin-left="0"
     fit-margin-right="0"
     fit-margin-bottom="0"
     inkscape:window-width="2532"
     inkscape:window-height="1372"
     inkscape:window-x="12"
     inkscape:window-y="12"
     inkscape:window-maximized="0" />
  <metadata
     id="metadata7">
    <rdf:RDF>
      <cc:Work
         rdf:about="">
        <dc:format>image/svg+xml</dc:format>
        <dc:type
           rdf:resource="http://purl.org/dc/dcmitype/StillImage" />
        <dc:title></dc:title>
      </cc:Work>
    </rdf:RDF>
  </metadata>
  <g
     inkscape:label="Layer 1"
     inkscape:groupmode="layer"
     id="layer1"
     transform="translate(-139.99998,-288.79074)">
    <rect
       style="fill:#0073cf;fill-opacity:1;stroke:none"
       id="rect3759"
       width="444.28571"
       height="222.14285"
       x="139.99998"
       y="288.79074"
       rx="3.3" />
    <rect
       rx="3.168"
       y="297.60538"
       x="148.8857"
       height="204.5136"
       width="426.51428"
       id="rect3763"
       style="fill:#0073cf;fill-opacity:1;stroke:#ffffff;stroke-width:2.579;stroke-linejoin:round;stroke-miterlimit:4;stroke-opacity:1;stroke-dasharray:none" />
    <path
       sodipodi:nodetypes="cczcccc"
       inkscape:connector-curvature="0"
       d="m 283.95009,475.069 31.45703,-66.52825 c 0,0 12.58572,-22.14286 43.16429,-3.57143 30.57857,18.57143 50.30713,3.57143 50.30713,3.57143 l 31.45704,66.52825 -78.19274,0 z"
       style="opacity:0.13409962;fill:#ffffff;fill-opacity:1;stroke:none"
       id="path3771" />
    <path
       id="path3767"
       style="fill:none;stroke:#ffffff;stroke-width:4.0999999;stroke-linecap:butt;stroke-linejoin:round;stroke-miterlimit:4;stroke-opacity:1;stroke-dasharray:none"
       d="m 283.95009,475.069 62.91407,-133.05651 -16.15715,-17.35715 31.43583,0 32.63582,0 -17.35715,17.35715 62.91407,133.05651 -78.19274,0 z"
       inkscape:connector-curvature="0"
       sodipodi:nodetypes="ccccccccc" />
    <path
       sodipodi:type="arc"
       style="opacity:0.13409962;fill:#ffffff;fill-opacity:1;stroke:none"
       id="path3773"
       sodipodi:cx="351.42856"
       sodipodi:cy="444.50504"
       sodipodi:rx="9.2857141"
       sodipodi:ry="9.2857141"
       d="m 360.71427,444.50504 c 0,5.12835 -4.15735,9.28571 -9.28571,9.28571 -5.12836,0 -9.28572,-4.15736 -9.28572,-9.28571 0,-5.12836 4.15736,-9.28572 9.28572,-9.28572 5.12836,0 9.28571,4.15736 9.28571,9.28572 z"
       transform="translate(2.1428571,26.428571)" />
    <path
       d="m 360.71427,444.50504 c 0,5.12835 -4.15735,9.28571 -9.28571,9.28571 -5.12836,0 -9.28572,-4.15736 -9.28572,-9.28571 0,-5.12836 4.15736,-9.28572 9.28572,-9.28572 5.12836,0 9.28571,4.15736 9.28571,9.28572 z"
       sodipodi:ry="9.2857141"
       sodipodi:rx="9.2857141"
       sodipodi:cy="444.50504"
       sodipodi:cx="351.42856"
       id="path3775"
       style="opacity:0.13409962;fill:#ffffff;fill-opacity:1;stroke:none"
       sodipodi:type="arc"
       transform="matrix(0.6,0,0,0.6,159.14285,183.5163)" />
    <path
       transform="translate(5,-18.571429)"
       d="m 360.71427,444.50504 c 0,5.12835 -4.15735,9.28571 -9.28571,9.28571 -5.12836,0 -9.28572,-4.15736 -9.28572,-9.28571 0,-5.12836 4.15736,-9.28572 9.28572,-9.28572 5.12836,0 9.28571,4.15736 9.28571,9.28572 z"
       sodipodi:ry="9.2857141"
       sodipodi:rx="9.2857141"
       sodipodi:cy="444.50504"
       sodipodi:cx="351.42856"
       id="path3777"
       style="opacity:0.13409962;fill:#ffffff;fill-opacity:1;stroke:none"
       sodipodi:type="arc" />
    <path
       sodipodi:type="arc"
       style="opacity:0.13409962;fill:#ffffff;fill-opacity:1;stroke:none"
       id="path3779"
       sodipodi:cx="351.42856"
       sodipodi:cy="444.50504"
       sodipodi:rx="9.2857141"
       sodipodi:ry="9.2857141"
       d="m 360.71427,444.50504 c 0,5.12835 -4.15735,9.28571 -9.28571,9.28571 -5.12836,0 -9.28572,-4.15736 -9.28572,-9.28571 0,-5.12836 4.15736,-9.28572 9.28572,-9.28572 5.12836,0 9.28571,4.15736 9.28571,9.28572 z"
       transform="matrix(0.652,0,0,0.652,148.01142,122.54489)" />
    <path
       style="opacity:0.13399999;fill:#ffffff;fill-opacity:1;stroke:none"
       d="m 148.57143,353.79075 56.78571,-56.78571 42.5,0 -98.39285,98.39286 z"
       id="path3781"
       inkscape:connector-curvature="0" />
    <path
       style="opacity:0.13399999;fill:#ffffff;fill-opacity:1;stroke:none"
       d="M 256.42857,297.36218 150,403.79075 l 0,14.28572 121.78571,-121.78572 z"
       id="path3785"
       inkscape:connector-curvature="0" />
    <path
       style="opacity:0.13399999;fill:#ffffff;fill-opacity:1;stroke:none"
       d="m 533.57143,298.07647 -204.28572,204.28571 30.71429,0 206.42857,-206.42857 z"
       id="path3787"
       inkscape:connector-curvature="0" />
    <text
       xml:space="preserve"
       style="font-size:40px;font-style:normal;font-variant:normal;font-weight:normal;font-stretch:normal;line-height:125%;letter-spacing:0px;word-spacing:0px;fill:#ffffff;fill-opacity:1;stroke:#0073cf;stroke-width:1.89999998;stroke-miterlimit:90.19999695;stroke-opacity:1;stroke-dasharray:none;font-family:Gotham;-inkscape-font-specification:Gotham"
       x="268.45782"
       y="379.50504"
       id="text3789"
       sodipodi:linespacing="125%"><tspan
         sodipodi:role="line"
         id="tspan3791"
         x="268.45782"
         y="379.50504">SCINAGE</tspan></text>
  </g>
</svg>
